<?xml version="1.0" encoding="UTF-8" standalone="no"?>
<svg
   xmlns:dc="http://purl.org/dc/elements/1.1/"
   xmlns:cc="http://creativecommons.org/ns#"
   xmlns:rdf="http://www.w3.org/1999/02/22-rdf-syntax-ns#"
   xmlns:svg="http://www.w3.org/2000/svg"
   xmlns="http://www.w3.org/2000/svg"
   xmlns:sodipodi="http://sodipodi.sourceforge.net/DTD/sodipodi-0.dtd"
   xmlns:inkscape="http://www.inkscape.org/namespaces/inkscape"
   inkscape:version="1.0beta0 (1b5d333, 2019-09-08)"
   sodipodi:docname="align-vertical-top-to-anchor-symbolic.svg"
   viewBox="0 0 16 16"
   height="16"
   width="16"
   id="svg1"
   version="1.1">
<style id="s0">
   .base    { fill: #000000; }
   .success { fill: #009909; }
   .warning { fill: #FF1990; }
   .error   { fill: #00AAFF; }
   .dark    {  }
  </style>
  <style id="s2"> 
     @import '../../highlights.css'; 
  </style>
     
<metadata
     id="metadata1385">
    <rdf:RDF>
      <cc:Work
         rdf:about="">
        <dc:format>image/svg+xml</dc:format>
        <dc:type
           rdf:resource="http://purl.org/dc/dcmitype/StillImage" />
        <dc:title />
      </cc:Work>
    </rdf:RDF>
  </metadata>
  <defs
     id="defs1383" />
  <sodipodi:namedview
     inkscape:snap-global="true"
     inkscape:current-layer="svg1"
     inkscape:window-maximized="1"
     inkscape:window-y="-8"
     inkscape:window-x="54"
     inkscape:window-height="1177"
     inkscape:window-width="1858"
     inkscape:cy="12.184141"
     inkscape:cx="8.2112065"
     inkscape:zoom="15.839192"
     showgrid="true"
     id="namedview"
     guidetolerance="10"
     gridtolerance="10"
     objecttolerance="10">
    <inkscape:grid
       id="grid"
       type="xygrid" />
  </sodipodi:namedview>
  <g
     id="align-vertical-bottom-to-anchor"
     inkscape:label="00268"
     transform="matrix(0.666667,0,0,-0.666667,-716.00043,434.99262)">
    <path
       inkscape:connector-curvature="0"
       id="rect22386"
       d="m 1098.0001,628.4886 v 24 h -24 v -24 z"
       style="opacity:0;fill:none;"/>
    <path
       inkscape:connector-curvature="0"
       id="rect22388"
       d="m 1098.0001,648.4886 v 4 h -4 v -4 z"
       style="opacity:0.5;fill-opacity:1;"
       class="success" />
    <path
       inkscape:connector-curvature="0"
       id="rect22390"
       d="m 1098.0001,645.9886 v 1.5 h -24 v -1.5 z"
       style="opacity:1;fill-opacity:1;"
       class="success" />
    <path
       inkscape:connector-curvature="0"
       id="rect22392"
       d="m 1094.0001,629.4886 v 15.4151 h -5 v -15.4151 z"
       style="opacity:1;"/>
    <path
       inkscape:connector-curvature="0"
       id="rect22394"
       d="m 1087.0001,635.2693 v 9.6344 h -3 v -9.6344 z"
       style="opacity:1;"/>
    <path
       inkscape:connector-curvature="0"
       id="rect22396"
       d="m 1082.0001,631.4155 v 13.4882 h -4 v -13.4882 z"
       style="opacity:1;"/>
  </g>
</svg>
