<?xml version="1.0" encoding="UTF-8" standalone="no"?>
<svg
   xmlns:dc="http://purl.org/dc/elements/1.1/"
   xmlns:cc="http://creativecommons.org/ns#"
   xmlns:rdf="http://www.w3.org/1999/02/22-rdf-syntax-ns#"
   xmlns:svg="http://www.w3.org/2000/svg"
   xmlns="http://www.w3.org/2000/svg"
   xmlns:sodipodi="http://sodipodi.sourceforge.net/DTD/sodipodi-0.dtd"
   xmlns:inkscape="http://www.inkscape.org/namespaces/inkscape"
   inkscape:version="1.1-dev (1fceb22, 2019-12-30)"
   sodipodi:docname="document-export-ocal-symbolic.svg"
   version="1.1"
   height="16"
   width="16"
   id="svg1">
  <style
     id="s0">
.base { fill:#000000; }
.success { fill:#009909; }
.warning { fill:#FF1990; }
.error { fill:#00AAFF; }
.dark { }
</style>
  <style
     id="s2">
@import '../../highlights.css';
</style>
  <metadata
     id="metadata168664">
    <rdf:RDF>
      <cc:Work
         rdf:about="">
        <dc:format>image/svg+xml</dc:format>
        <dc:type
           rdf:resource="http://purl.org/dc/dcmitype/StillImage" />
        <dc:title />
      </cc:Work>
    </rdf:RDF>
  </metadata>
  <sodipodi:namedview
     inkscape:current-layer="svg1"
     inkscape:window-maximized="1"
     inkscape:window-y="-8"
     inkscape:window-x="54"
     inkscape:window-height="1177"
     inkscape:window-width="1858"
     inkscape:cy="7.9557413"
     inkscape:cx="-11.800225"
     inkscape:zoom="16"
     inkscape:snap-global="true"
     showgrid="true"
     id="base">
    <inkscape:grid
       empspacing="5"
       empopacity="0.38"
       opacity="0.15"
       empcolor="#3f3fff"
       color="#3f3fff"
       spacingy="1pt"
       spacingx="1pt"
       originy="0pt"
       originx="0pt"
       type="xygrid"
       id="GridFromPre046Settings" />
  </sodipodi:namedview>
  <defs
     id="defs3" />
  <path
     d="M 0,6.6412359 H 2.2745992 V 5.3333333 L 4,7.3333339 2.2745992,9.3333333 V 7.9835996 H 0 Z"
     id="use5366"
     inkscape:connector-curvature="0"
     sodipodi:nodetypes="cccccccc"
     style="fill:#000000;fill-rule:evenodd;stroke-width:0.509673" />
  <path
     sodipodi:nodetypes="sssccssscccssss"
     inkscape:connector-curvature="0"
     id="rect215337"
     d="m 5.971562,0.741436 c -0.763351,0 -1.398211,0.634859 -1.398211,1.398211 V 13.50391 c 0,0.72619 0.545004,1.32801 1.258151,1.38552 l 0.00405,-1.38557 V 2.139647 c 0,-0.08573 0.05029,-0.136014 0.136013,-0.136014 h 7.511265 c 0.0857,0 0.1342,0.136014 0.1342,0.136014 l -0.009,11.364263 v 1.38372 c 0.70535,-0.0654 1.27127,-0.66309 1.27127,-1.3837 V 2.139647 c 0,-0.763352 -0.63304,-1.398211 -1.39639,-1.398211 z"
     style="color:#000000;font-style:normal;font-variant:normal;font-weight:normal;font-stretch:normal;font-size:medium;line-height:normal;font-family:sans-serif;font-variant-ligatures:normal;font-variant-position:normal;font-variant-caps:normal;font-variant-numeric:normal;font-variant-alternates:normal;font-feature-settings:normal;text-indent:0;text-align:start;text-decoration:none;text-decoration-line:none;text-decoration-style:solid;text-decoration-color:#000000;letter-spacing:normal;word-spacing:normal;text-transform:none;writing-mode:lr-tb;direction:ltr;text-orientation:mixed;dominant-baseline:auto;baseline-shift:baseline;text-anchor:start;white-space:normal;shape-padding:0;clip-rule:nonzero;display:inline;overflow:visible;visibility:visible;opacity:1;isolation:auto;mix-blend-mode:normal;color-interpolation:sRGB;color-interpolation-filters:linearRGB;solid-color:#000000;solid-opacity:1;vector-effect:none;fill:#000000;fill-opacity:1;fill-rule:evenodd;stroke:none;stroke-width:1.26257;stroke-linecap:butt;stroke-linejoin:miter;stroke-miterlimit:4;stroke-dasharray:none;stroke-dashoffset:0;stroke-opacity:1;color-rendering:auto;image-rendering:auto;shape-rendering:auto;text-rendering:auto;enable-background:accumulate" />
  <rect
     style="opacity:1;fill:#000000;fill-opacity:1;fill-rule:evenodd;stroke:none;stroke-width:0.877445;stroke-miterlimit:4;stroke-dasharray:none;stroke-opacity:1"
     id="rect219058"
     width="6.2162786"
     height="2.6794693"
     x="6.6666665"
     y="2.705405"
     ry="0.84259152" />
  <rect
     style="opacity:1;fill:#000000;fill-opacity:0.51634;fill-rule:evenodd;stroke:none;stroke-width:0.877445;stroke-miterlimit:4;stroke-dasharray:none;stroke-opacity:1"
     id="rect219068"
     width="6.2162786"
     height="2.6794686"
     x="6.6666665"
     y="5.8597178"
     ry="0.84259152" />
  <rect
     ry="0.84259152"
     y="12.16834"
     x="6.6666665"
     height="2.6794691"
     width="6.2162786"
     id="rect219054"
     style="opacity:1;fill:#000000;fill-opacity:0.183006;fill-rule:evenodd;stroke:none;stroke-width:0.877445;stroke-miterlimit:4;stroke-dasharray:none;stroke-opacity:1" />
  <rect
     style="opacity:1;fill:#000000;fill-opacity:0.751634;fill-rule:evenodd;stroke:none;stroke-width:0.877445;stroke-miterlimit:4;stroke-dasharray:none;stroke-opacity:1"
     id="rect219060"
     width="6.2162786"
     height="2.6794691"
     x="6.6666665"
     y="9.1496992"
     ry="0.84259152" />
</svg>
