<?xml version="1.0" encoding="UTF-8" standalone="no"?>
<svg
   xmlns:dc="http://purl.org/dc/elements/1.1/"
   xmlns:cc="http://creativecommons.org/ns#"
   xmlns:rdf="http://www.w3.org/1999/02/22-rdf-syntax-ns#"
   xmlns:svg="http://www.w3.org/2000/svg"
   xmlns="http://www.w3.org/2000/svg"
   xmlns:sodipodi="http://sodipodi.sourceforge.net/DTD/sodipodi-0.dtd"
   xmlns:inkscape="http://www.inkscape.org/namespaces/inkscape"
   inkscape:version="1.0beta2 (7cf281c, 2019-12-21)"
   sodipodi:docname="draw-geometry-line-perpendicular-symbolic.svg"
   viewBox="0 0 16 16"
   height="16"
   width="16"
   id="svg1"
   version="1.1">
  <metadata
     id="metadata15335">
    <rdf:RDF>
      <cc:Work
         rdf:about="">
        <dc:format>image/svg+xml</dc:format>
        <dc:type
           rdf:resource="http://purl.org/dc/dcmitype/StillImage" />
      </cc:Work>
    </rdf:RDF>
  </metadata>
  <defs
     id="defs15333" />
  <style
     id="s0">
.base { fill:#000000; }
.success { fill:#009909; }
.warning { fill:#FF1990; }
.error { fill:#00AAFF; }
.dark { }
</style>
  <style
     id="s2">
@import '../../highlights.css';
</style>
  <sodipodi:namedview
     inkscape:current-layer="svg1"
     inkscape:window-maximized="1"
     inkscape:window-y="-6"
     inkscape:window-x="65"
     inkscape:window-height="890"
     inkscape:window-width="1296"
     inkscape:cy="8"
     inkscape:cx="8"
     inkscape:zoom="41.125"
     showgrid="true"
     id="namedview"
     guidetolerance="10"
     gridtolerance="10"
     objecttolerance="10">
    <inkscape:grid
       id="grid"
       type="xygrid" />
  </sodipodi:namedview>
  <g
     id="draw-geometry-line-perpendicular"
     inkscape:label="00225"
     transform="matrix(1,0,0,0.998805,-619,-588.64924)">
    <path
       style="opacity:0;fill:none"
       d="m 619,589.36212 h 16 v 16 h -16 z"
       id="rect14519"
       inkscape:connector-curvature="0" />
    <path
       style="opacity:1;stroke-linecap:round"
       d="m 620.56641,589.35352 a 0.57250329,0.57250329 0 0 0 -0.41407,0.95117 l 12.8086,14.86914 a 0.57262116,0.57262116 0 1 0 0.86718,-0.74805 l -12.80859,-14.86719 a 0.57250329,0.57250329 0 0 0 -0.45312,-0.20507 z"
       id="path4418-8-1-2"
       inkscape:connector-curvature="0" />
    <path
       style="opacity:1;stroke-linecap:round"
       d="m 630.99609,593.30078 a 0.57250329,0.57250329 0 0 0 -0.30273,0.11328 l -8.29102,6.05274 a 0.57251975,0.57251975 0 1 0 0.67383,0.92578 l 8.29297,-6.05274 a 0.57250329,0.57250329 0 0 0 -0.37305,-1.03906 z"
       id="path4418-8-1-0-1"
       inkscape:connector-curvature="0" />
  </g>
</svg>
