<?xml version="1.0" encoding="UTF-8" standalone="no"?>
<svg
   xmlns:dc="http://purl.org/dc/elements/1.1/"
   xmlns:cc="http://creativecommons.org/ns#"
   xmlns:rdf="http://www.w3.org/1999/02/22-rdf-syntax-ns#"
   xmlns:svg="http://www.w3.org/2000/svg"
   xmlns="http://www.w3.org/2000/svg"
   xmlns:sodipodi="http://sodipodi.sourceforge.net/DTD/sodipodi-0.dtd"
   xmlns:inkscape="http://www.inkscape.org/namespaces/inkscape"
   inkscape:version="1.1-dev (1fceb22ce1, 2019-12-30, custom)"
   sodipodi:docname="feGaussianBlur-icon-symbolic.svg"
   viewBox="0 0 16 16"
   height="16"
   width="16"
   id="svg1"
   version="1.1">
  <defs
     id="defs887" />
  <style
     id="s0">.base { fill:#000000; }
.success { fill:#009909; }
.warning { fill:#FF1990; }
.error { fill:#00AAFF; }
.dark {  }
</style>
  <style
     id="s2">
@import '../../highlights.css';
</style>
  <sodipodi:namedview
     inkscape:current-layer="layer"
     inkscape:window-maximized="1"
     inkscape:window-height="1376"
     inkscape:window-width="2560"
     inkscape:window-y="27"
     inkscape:window-x="0"
     inkscape:cy="8.9906751"
     inkscape:cx="7.4837792"
     inkscape:zoom="27.166187"
     showgrid="true"
     id="namedview"
     guidetolerance="10"
     gridtolerance="10"
     objecttolerance="10">
    <inkscape:grid
       id="grid"
       type="xygrid" />
  </sodipodi:namedview>
  <metadata
     id="metadata1906">
    <rdf:RDF>
      <cc:Work
         rdf:about="">
        <dc:format>image/svg+xml</dc:format>
        <dc:type
           rdf:resource="http://purl.org/dc/dcmitype/StillImage" />
        <cc:license
           rdf:resource="http://creativecommons.org/publicdomain/zero/1.0/" />
        <dc:title></dc:title>
        <dc:date>13 Nov 2018</dc:date>
        <dc:creator>
          <cc:Agent>
            <dc:title>Ramón Miranda</dc:title>
          </cc:Agent>
        </dc:creator>
        <dc:rights>
          <cc:Agent>
            <dc:title>see the license tab</dc:title>
          </cc:Agent>
        </dc:rights>
        <dc:subject>
          <rdf:Bag>
            <rdf:li>icon ui</rdf:li>
          </rdf:Bag>
        </dc:subject>
        <dc:description>This is a little contribution with Inkscape Project
Ramon Miranda  www.ramonmiranda.com (design and SVG file)
Jabiertxo (SVG stuff to integrate them in UI)</dc:description>
        <dc:publisher>
          <cc:Agent>
            <dc:title />
          </cc:Agent>
        </dc:publisher>
        <dc:identifier />
        <dc:source />
        <dc:relation />
        <dc:language>-</dc:language>
        <dc:coverage />
        <dc:contributor>
          <cc:Agent>
            <dc:title>Ramon Miranda
Jabier Arraiza</dc:title>
          </cc:Agent>
        </dc:contributor>
      </cc:Work>
      <cc:License
         rdf:about="http://creativecommons.org/publicdomain/zero/1.0/">
        <cc:permits
           rdf:resource="http://creativecommons.org/ns#Reproduction" />
        <cc:permits
           rdf:resource="http://creativecommons.org/ns#Distribution" />
        <cc:permits
           rdf:resource="http://creativecommons.org/ns#DerivativeWorks" />
      </cc:License>
    </rdf:RDF>
  </metadata>
  <g
     inkscape:label="feGaussianBlur"
     id="layer"
     inkscape:groupmode="layer">
    <path
       style="opacity:0;fill:none"
       d="M 0,0 H 16 V 16 H 0 Z"
       id="rect22048" />
    <path
       class="error"
       d="m 5.8271396,13.498995 v -0.2366 H 5.5905357 5.3539362 v -0.236603 -0.236604 h 0.2362347 0.2362342 l 0.00408,-0.240297 0.00408,-0.240302 h 0.2366035 0.236604 l 0.00408,0.240302 0.00408,0.240297 H 6.552192 6.7884268 V 12.545194 12.3012 H 6.5518272 6.3152233 V 12.064595 11.827992 H 6.071228 5.8272327 V 12.064595 12.3012 H 5.5906288 5.3540292 V 12.064595 11.827992 H 5.5906288 5.8272327 V 11.591393 11.354789 H 5.5906288 5.3540292 v -0.236604 -0.236598 h 0.2365996 0.2366039 v 0.236598 0.236604 H 6.071228 6.3152233 V 11.118555 10.88232 l -0.2402999,-0.004 -0.2402994,-0.004 V 10.637783 10.40118 h 0.236604 0.236604 l 0.00408,0.240296 0.00408,0.240301 H 6.552234 6.7884683 V 10.637814 10.393815 H 6.551874 6.31527 v -0.125668 -0.12569 H 6.0712749 5.8272795 v 0.12569 0.125698 H 5.5906755 5.3540764 v -0.125698 -0.12569 H 3.7420985 2.130242 l 0.00365,-4.0628994 0.00365,-4.062904 0.00375,4.0555086 0.00375,4.0555098 1.6081285,0.003 c 0.8844714,0.0015 2.1438122,0.0035 2.7985347,0.004 l 1.1904022,4.92e-4 0.00423,0.129395 0.00423,0.129389 h 0.2360265 0.2360269 v 0.243998 0.243994 H 7.9859993 7.7493953 v 0.473208 0.473203 h 0.228843 0.2288429 l 0.00442,-0.240302 0.00442,-0.240296 0.00335,0.240296 0.00335,0.240302 h 0.7096046 0.7095997 l 0.00414,-0.4769 0.00414,-0.476901 0.00346,0.476901 0.00346,0.4769 H 9.8858811 10.11472 l 0.0045,-0.240302 0.0045,-0.240296 0.0034,0.240296 0.0034,0.240302 h 0.709807 0.709808 v -0.709807 -0.709802 h -0.236604 -0.236603 l 0.0034,-0.247696 0.0034,-0.2476907 0.0045,0.2402957 0.0045,0.240301 h 0.228842 0.228842 V 9.6840646 8.9742577 h -0.22903 -0.228842 l -0.0045,0.2403013 -0.0045,0.2402963 -0.0034,-0.2476906 -0.0034,-0.2476916 h 0.236603 0.236605 V 8.7228428 8.4862382 h 0.243995 0.243996 V 7.7764312 7.0666243 h -0.23651 -0.236599 l -0.0034,0.4769059 c -0.0018,0.2622934 -0.0053,0.368765 -0.0078,0.2365987 L 11.54913,7.5398326 H 11.312914 11.076676 V 7.303229 7.0666243 H 10.662623 10.248568 V 6.5860268 6.1054292 h 0.177455 0.177449 V 5.8688305 5.6322259 h -0.177449 -0.177455 l -2.7e-5,-0.2403013 -2.8e-5,-0.2402963 0.177477,0.00445 0.177482,0.00445 V 5.3962611 5.631993 h 0.2366 0.236604 V 5.395385 5.1587864 h 0.244369 0.244374 l -0.0041,0.232901 -0.0041,0.232907 -0.240301,0.00395 -0.240299,0.00395 V 5.8687356 6.1049705 H 11.3207 11.564696 V 5.8683086 5.631704 h 0.236603 0.2366 V 5.3951004 5.1585017 h 0.236605 0.236598 V 5.3951004 5.631704 h 0.236605 0.236603 V 5.3951004 5.1585017 H 13.228305 13.4723 V 5.3951004 5.631704 h 0.236603 0.2366 v 0.2366046 0.2365987 h -0.236699 -0.236603 v 0.2366036 0.2365997 h 0.23699 0.23697 l -0.0041,0.2403013 -0.0041,0.2402963 -0.232908,0.00395 -0.232904,0.00395 V 7.3028369 7.539062 h 0.236604 0.236599 v 0.2366036 0.2366046 h -0.236597 -0.236604 v 0.2365987 0.2366036 h 0.236969 0.236969 l -0.0041,0.2403022 -0.0041,0.2402964 -0.232909,0.00395 -0.232903,0.00395 v 0.23623 0.236225 h 0.236603 0.2366 v 0.236607 0.2365999 h -0.2366 -0.236603 v 0.236604 0.236603 h 0.236603 0.2366 v 0.243994 0.243994 h -0.2366 -0.236603 v 0.236604 0.236604 h 0.236603 0.2366 v 0.236599 0.236603 h -0.2366 -0.236603 v 0.236225 0.23623 l 0.232903,0.004 0.232909,0.004 0.0041,0.240301 0.0041,0.240297 h -0.237037 -0.236969 v 0.236604 0.236598 h 0.236604 0.2366 v 0.236605 0.236603 h -0.2366 -0.236604 v -0.236724 -0.236605 h -0.243994 -0.243996 v 0.236605 0.236603 H 12.747582 12.510979 V 13.497922 13.261317 H 12.27438 12.037775 v 0.236605 0.236603 h -0.236599 -0.236604 v -0.236603 -0.236605 h -0.243995 -0.243996 v 0.236605 0.236603 h -0.236603 -0.2366 V 13.497922 13.261317 H 10.366775 10.13017 v 0.236605 0.236603 H 9.893571 9.6569667 V 13.497922 13.261317 H 9.893571 10.13017 V 13.024719 12.788115 H 9.8939358 9.6577022 l -0.00405,-0.240296 -0.00405,-0.240303 H 9.4129252 9.1763208 l -0.00408,0.240303 -0.00408,0.240296 H 9.40513 9.642098 v 0.236604 0.236598 H 9.4054818 9.1688827 v 0.236605 0.236603 H 8.9322783 8.6956793 V 13.497922 13.261317 H 8.4590748 8.2224709 v 0.236605 0.236603 H 7.978475 7.7344797 V 13.497922 13.261317 H 7.4980078 7.2614033 v 0.236605 0.236603 H 7.0247994 6.7882004 V 13.497922 13.261317 H 6.5515963 6.3149924 v 0.236605 0.236603 H 6.0709965 5.8270014 V 13.497917 Z M 6.3151303,13.025792 V 12.789188 H 6.0711349 5.8271396 v 0.236604 0.236603 h 0.2439953 0.2439954 z m 0.9464113,0 v -0.236604 h 0.2365996 0.2366039 v 0.236604 0.236603 h 0.2439953 0.2439953 v -0.236603 -0.236604 h 0.2366041 0.2365994 v 0.236604 0.236603 h 0.236604 0.236604 V 13.025792 12.789188 H 8.9325432 8.6959392 V 12.545194 12.3012 H 8.4593398 8.2227357 v 0.244358 0.244364 l -0.2402993,-0.004 -0.2403,-0.004 -0.00408,-0.240302 -0.00408,-0.240296 H 7.4977714 7.2615372 v 0.243994 0.243999 H 7.0249333 6.7883289 v 0.236599 0.236604 h 0.2366044 0.2366039 z m 3.8152064,0 v -0.236604 h 0.244001 0.243995 v 0.236604 0.236603 h 0.236599 0.236604 v -0.236603 -0.236604 h 0.236603 0.2366 v 0.236604 0.236603 h 0.236605 0.2366 v -0.236603 -0.236604 h 0.243998 0.243996 V 12.545194 12.3012 h -0.243996 -0.243998 v -0.236605 -0.236603 h 0.243998 0.243996 v -0.236599 -0.236604 h -0.243996 -0.243998 v -0.236604 -0.236598 h 0.243998 0.243996 v -0.244 -0.243993 H 13.228353 12.984355 V 10.156991 9.9203908 h 0.243998 0.243996 V 9.6837868 9.4471833 H 13.228353 12.984355 V 9.2105836 8.97398 h 0.243998 0.243996 V 8.7299861 8.4859872 H 13.228353 12.984355 V 8.2493884 8.0127848 h 0.243998 0.243996 V 7.7761802 7.5395815 H 13.228353 12.984355 V 7.3029779 7.0663733 h 0.243998 0.243996 V 6.8223803 6.5783814 H 13.228353 12.984355 V 6.3417817 6.1051781 h 0.243998 0.243996 V 5.8685794 5.6319748 h -0.243996 -0.243998 v 0.2366046 0.2365987 h -0.2366 -0.236605 V 5.8685794 5.6319748 h -0.2366 -0.236603 v 0.2366046 0.2365987 h -0.236604 -0.236599 v 0.2366036 0.2365997 h 0.236599 0.236604 V 6.3417817 6.1051781 h 0.236603 0.2366 v 0.2366036 0.2365997 h 0.236605 0.2366 v 0.2439989 0.243993 h -0.2366 -0.236605 v 0.2366046 0.2366036 h 0.236605 0.2366 v 0.2365987 0.2366046 h -0.2366 -0.236605 v 0.2366036 0.2365988 h 0.236605 0.2366 V 8.7299861 8.97398 h -0.2366 -0.236605 v 0.2366036 0.2365997 h 0.236605 0.2366 v 0.2366035 0.236604 h -0.2366 -0.236605 v 0.2366002 0.236603 h 0.236605 0.2366 v 0.243993 0.244 h -0.2366 -0.236605 v 0.236598 0.236604 h 0.236605 0.2366 v 0.236604 0.236599 h -0.2366 -0.236605 v 0.236603 0.236605 h -0.2366 -0.236603 v 0.243994 0.243994 h -0.236234 -0.236239 l -0.0041,-0.240297 -0.0041,-0.240302 h -0.236566 -0.236603 l -0.0041,0.240302 -0.0041,0.240297 H 10.83985 10.60361 V 12.545194 12.3012 h -0.236599 -0.236604 v 0.243994 0.243994 h 0.236604 0.236599 v 0.236604 0.236603 h 0.236604 0.2366 z M 12.51115,12.545194 V 12.3012 h 0.236605 0.2366 v 0.243994 0.243994 h -0.2366 -0.236605 z M 6.7883337,11.591393 V 11.354789 H 6.5517342 6.3151303 v 0.236604 0.236599 H 6.5517342 6.7883337 Z M 7.7347451,11.118185 V 10.408383 H 7.4984415 7.2621373 l -4.617e-4,0.709802 -4.618e-4,0.709807 h 0.2366039 0.2366039 v -0.709807 z m 4.3032019,0.236604 v -0.473202 h -0.236604 -0.236599 v 0.473202 0.473203 h 0.236599 0.236604 z M 8.2079486,10.637587 V 10.408383 H 7.9787404 7.7495322 v 0.229204 0.22921 h 0.2292082 0.2292082 z m 3.8299984,0 v -0.229204 h -0.236604 -0.236599 v 0.229204 0.22921 h 0.236599 0.236604 z M 7.7347451,10.267897 V 10.142205 H 7.4981412 7.2615416 v 0.125692 0.125697 H 7.4981412 7.7347451 Z M 12.037947,9.6837868 V 8.97398 h -0.236604 -0.236599 v 0.7098068 0.7098072 h 0.236599 0.236604 z m 0,-0.9538007 V 8.5007767 h -0.236604 -0.236599 v 0.2292094 0.2292093 h 0.236599 0.236604 z M 11.549956,7.2955826 V 7.0663733 H 11.320749 11.09154 v 0.2292093 0.2292093 h 0.229209 0.229207 z M 11.076748,6.3417817 V 6.1051781 h -0.236599 -0.236604 v 0.2366036 0.2365997 h 0.236604 0.236599 z M 9.1751664,11.118185 c 0,-0.134195 0.00226,-0.189093 0.00498,-0.121995 0.00271,0.0671 0.00271,0.176895 0,0.243994 -0.00271,0.06711 -0.00498,0.01221 -0.00498,-0.121999 z m 1.9076326,-0.0074 c -1.2e-5,-0.138266 0.0022,-0.196819 0.005,-0.130118 0.0027,0.0667 0.0028,0.179824 3.3e-5,0.251388 -0.0027,0.07156 -0.005,0.01699 -0.005,-0.12127 z m 0,-2.8540176 c -1.2e-5,-0.1382609 0.0022,-0.1968133 0.005,-0.1301173 0.0027,0.066698 0.0028,0.1798283 3.3e-5,0.2513932 -0.0027,0.071561 -0.005,0.016981 -0.005,-0.1212759 z m -0.74913,-0.7280996 c 0.05083,-0.00296 0.134018,-0.00296 0.184847,0 0.05083,0.00296 0.0092,0.00524 -0.09242,0.00524 -0.101665,0 -0.143255,-0.00247 -0.09243,-0.00524 z"
       id="path4887" />
    <path
       style="opacity:1;fill:#000000"
       d="m 7.2615416,11.591393 v -0.236604 h 0.2365996 0.2366039 v 0.236604 0.236599 H 7.4981412 7.2615416 Z m 0.9611941,0 V 11.354789 H 7.9861363 7.7495322 v -0.236604 -0.236598 h 0.2366041 0.2365994 v -0.244 -0.243993 H 7.9867093 7.7506829 l -0.00423,-0.129394 -0.00423,-0.12939 -1.1904023,-10e-4 c -0.6547226,-4.19e-4 -1.9140771,-0.0019 -2.7985623,-0.004 l -1.6081565,-0.003 V 6.0751166 2.0233046 H 6.19691 10.24872 v 2.7578943 2.7578953 h 0.177455 0.177449 V 7.3024907 7.065886 h 0.236604 0.2366 v 0.2366047 0.2366035 h 0.236603 0.236605 v 0.2365987 0.2366046 h 0.243995 0.243994 V 8.2489012 8.4854999 H 11.79403 11.550035 V 8.7221044 8.9587081 H 11.31343 11.076827 V 9.202702 9.446696 h 0.236603 0.236605 v 0.2366036 0.236604 H 11.31343 11.076827 v 0.2439934 0.243999 h 0.236603 0.236605 v 0.237308 0.237307 l -0.236623,-0.0045 -0.236622,-0.0045 1.4e-5,0.240301 1.4e-5,0.240298 h 0.236604 0.236599 v 0.236603 0.236604 h -0.236599 -0.236604 v -0.23657 -0.236604 H 10.840213 10.603614 V 11.590797 11.8274 H 10.36701 10.13041 V 11.590852 11.354248 H 9.8938066 9.6572014 V 11.117649 10.881045 H 9.4132072 9.1692116 v 0.236604 0.236599 h 0.2366037 0.2365999 v 0.236604 0.236603 H 9.4058153 9.1692116 V 11.590852 11.354248 H 8.9326077 8.6960082 v 0.236604 0.236603 H 8.4594042 8.2228047 V 11.590852 Z M 8.6959392,11.118185 V 10.881587 H 8.4593398 8.2227357 v 0.236598 0.236604 h 0.2366041 0.2365994 z m 1.9076058,0 v -0.236598 h -0.236599 -0.236605 v 0.236598 0.236604 h 0.236605 0.236599 z M 11.549956,8.2486798 V 8.0127848 H 11.313353 11.076748 V 7.7761802 7.5395815 h -0.236599 -0.236604 v 0.2365987 0.2366046 h 0.236604 0.236599 l -1.3e-5,0.2402963 -1.5e-5,0.2403013 0.236623,-0.00445 0.236613,-0.00445 z m 0.01478,2.8695052 v -0.236598 h 0.2366 0.236604 v 0.236598 0.236604 H 11.801339 11.56474 Z m -4.293339,-0.24646 c -0.00543,-0.0054 -0.00985,-0.111892 -0.00985,-0.2366 v -0.226742 h 0.2365995 0.236604 v 0.236599 0.236605 H 7.5080031 c -0.1247067,0 -0.2311806,-0.0045 -0.2365991,-0.0099 z M 11.56474,10.156991 V 9.9203908 h 0.2366 0.236603 v 0.2366002 0.236603 h -0.236603 -0.2366 z m 0,-0.9464074 V 8.97398 h 0.2366 0.236603 v 0.2366036 0.2365997 h -0.236603 -0.2366 z m 0,-1.9076057 V 7.0663733 h 0.2366 0.236603 v 0.2366046 0.2366036 h -0.236603 -0.2366 z"
       id="path4885" />
  </g>
</svg>
