<?xml version='1.0' encoding='UTF-8'?>
<!-- Created with Inkscape (http://www.inkscape.org/) and export_objects.py -->
<svg xmlns:cc="http://creativecommons.org/ns#" xmlns:dc="http://purl.org/dc/elements/1.1/" xmlns:inkscape="http://www.inkscape.org/namespaces/inkscape" xmlns:rdf="http://www.w3.org/1999/02/22-rdf-syntax-ns#" xmlns:sodipodi="http://sodipodi.sourceforge.net/DTD/sodipodi-0.dtd" xmlns:xlink="http://www.w3.org/1999/xlink" xmlns="http://www.w3.org/2000/svg" version="1.1" id="svg1" width="16" height="16" viewBox="0 0 16 16" sodipodi:docname="node-segment-line-symbolic.svg">
<style id="s0">
   .base    { fill: #000000; }
   .success { fill: #009909; }
   .warning { fill: #FF1990; }
   .error   { fill: #00AAFF; }
   .dark    {  }
  </style>
  <style id="s2"> 
     @import '../../highlights.css'; 
  </style>

<sodipodi:namedview objecttolerance="10" gridtolerance="10" guidetolerance="10" id="namedview" showgrid="true" inkscape:zoom="0.6002936" inkscape:cx="732.67439" inkscape:cy="-567.94603" inkscape:window-width="1920" inkscape:window-height="1016" inkscape:window-x="0" inkscape:window-y="27" inkscape:window-maximized="1" inkscape:current-layer="layer1">
    <inkscape:grid type="xygrid" id="grid"/>
  </sodipodi:namedview>
  <g transform="translate(-709,-558.36218)" inkscape:label="00206" id="node-segment-line">
      <path inkscape:connector-curvature="0" id="rect16911" d="m 709,558.36218 h 16 v 16 h -16 z" style="opacity:0;fill:none"/>
      <use xlink:href="#rect4374" height="1250" width="1250" id="use16913" y="0" x="0" transform="matrix(1,0,0,0.8000004,266,113.8722)"/>
      <use xlink:href="#rect4374" height="1250" width="1250" id="use16915" y="0" x="0" transform="matrix(1,0,0,0.7999999,276,103.8725)"/>
      <path inkscape:connector-curvature="0" id="rect16926" d="m 907.46143,-109.1015 h 1 v 12.999999 h -1 z" style="opacity:1" transform="rotate(44.75927)"/>
    </g>
    </svg>
