<?xml version="1.0" encoding="UTF-8" standalone="no"?>
<svg
   xmlns:dc="http://purl.org/dc/elements/1.1/"
   xmlns:cc="http://creativecommons.org/ns#"
   xmlns:rdf="http://www.w3.org/1999/02/22-rdf-syntax-ns#"
   xmlns:svg="http://www.w3.org/2000/svg"
   xmlns="http://www.w3.org/2000/svg"
   xmlns:sodipodi="http://sodipodi.sourceforge.net/DTD/sodipodi-0.dtd"
   xmlns:inkscape="http://www.inkscape.org/namespaces/inkscape"
   inkscape:version="1.1-dev (1fceb22, 2019-12-30)"
   sodipodi:docname="object-rows-symbolic.svg"
   viewBox="0 0 16 16"
   height="16"
   width="16"
   id="svg1"
   version="1.1">
  <metadata
     id="metadata4861">
    <rdf:RDF>
      <cc:Work
         rdf:about="">
        <dc:format>image/svg+xml</dc:format>
        <dc:type
           rdf:resource="http://purl.org/dc/dcmitype/StillImage" />
      </cc:Work>
    </rdf:RDF>
  </metadata>
  <defs
     id="defs4859" />
  <style
     id="s0">
.base { fill:#000000; }
.success { fill:#009909; }
.warning { fill:#FF1990; }
.error { fill:#00AAFF; }
.dark { }
</style>
  <style
     id="s2">
@import '../../highlights.css';
</style>
  <sodipodi:namedview
     inkscape:current-layer="svg1"
     inkscape:window-maximized="1"
     inkscape:window-y="-8"
     inkscape:window-x="54"
     inkscape:window-height="1177"
     inkscape:window-width="1858"
     inkscape:cy="8"
     inkscape:cx="8"
     inkscape:zoom="60.1875"
     showgrid="true"
     id="namedview"
     guidetolerance="10"
     gridtolerance="10"
     objecttolerance="10">
    <inkscape:grid
       id="grid"
       type="xygrid" />
  </sodipodi:namedview>
  <g
     id="object-rows"
     inkscape:label="00246"
     transform="rotate(90,643.68112,115.68106)">
    <path
       style="opacity:0;fill:none"
       d="m 528.46967,743.36218 h 15.06066 c 0.2602,0 0.46967,0.20948 0.46967,0.46967 v 15.06066 c 0,0.2602 -0.20947,0.46967 -0.46967,0.46967 h -15.06066 c -0.2602,0 -0.46967,-0.20947 -0.46967,-0.46967 v -15.06066 c 0,-0.26019 0.20947,-0.46967 0.46967,-0.46967 z"
       id="rect23248"
       inkscape:connector-curvature="0" />
    <path
       style="opacity:1"
       d="m 531,745.36218 h 2 v 12 h -2 z"
       id="rect23250"
       inkscape:connector-curvature="0" />
    <path
       style="opacity:1"
       d="m 535,745.36218 h 2 v 12 h -2 z"
       id="rect23252"
       inkscape:connector-curvature="0" />
    <path
       style="opacity:1"
       d="m 539,745.36218 h 2 v 12 h -2 z"
       id="rect23254"
       inkscape:connector-curvature="0" />
  </g>
</svg>
