<?xml version="1.0" encoding="UTF-8" standalone="no"?>
<svg
   xmlns:dc="http://purl.org/dc/elements/1.1/"
   xmlns:cc="http://creativecommons.org/ns#"
   xmlns:rdf="http://www.w3.org/1999/02/22-rdf-syntax-ns#"
   xmlns:svg="http://www.w3.org/2000/svg"
   xmlns="http://www.w3.org/2000/svg"
   xmlns:sodipodi="http://sodipodi.sourceforge.net/DTD/sodipodi-0.dtd"
   xmlns:inkscape="http://www.inkscape.org/namespaces/inkscape"
   inkscape:version="1.1-dev (6039630, 2019-12-20)"
   sodipodi:docname="object-rotate-left-symbolic.svg"
   viewBox="0 0 16 16"
   height="16"
   width="16"
   id="svg1"
   version="1.1">
  <metadata
     id="metadata7131">
    <rdf:RDF>
      <cc:Work
         rdf:about="">
        <dc:format>image/svg+xml</dc:format>
        <dc:type
           rdf:resource="http://purl.org/dc/dcmitype/StillImage" />
      </cc:Work>
    </rdf:RDF>
  </metadata>
  <defs
     id="defs7129">
    <inkscape:path-effect
       attempt_force_join="true"
       miter_limit="100"
       linejoin_type="extrp_arc"
       line_width="1.8897638"
       linecap_type="butt"
       lpeversion="1"
       is_visible="true"
       id="path-effect7712"
       effect="join_type" />
  </defs>
  <style
     id="s0">.base { fill:#000000; }
.success { fill:#009909; }
.warning { fill:#FF1990; }
.error { fill:#00AAFF; }
.dark {  }
</style>
  <style
     id="s2">
@import '../../highlights.css';
</style>
  <sodipodi:namedview
     inkscape:current-layer="g18423"
     inkscape:window-maximized="1"
     inkscape:window-y="-6"
     inkscape:window-x="65"
     inkscape:window-height="890"
     inkscape:window-width="1296"
     inkscape:cy="8"
     inkscape:cx="8"
     inkscape:zoom="41.125"
     showgrid="true"
     id="namedview"
     guidetolerance="10"
     gridtolerance="10"
     objecttolerance="10">
    <inkscape:grid
       id="grid"
       type="xygrid" />
  </sodipodi:namedview>
  <g
     id="object-rotate-left"
     inkscape:label="00065"
     transform="translate(-135,-727.36218)">
    <g
       transform="matrix(-1,0,0,1,286,20)"
       id="g18423">
      <path
         style="opacity:0;fill:none"
         d="m 135,707.36218 h 16 v 16 h -16 z"
         id="rect18425"
         inkscape:connector-curvature="0" />
      <path
         class="success"
         style="opacity:1"
         d="m 147,716.36218 3,-3 h -6 z"
         id="path18427"
         inkscape:connector-curvature="0" />
      <path
         transform="translate(0,512.3622)"
         style="opacity:0.5"
         d="m 135,195 h 5 v 10 h -5 z"
         id="rect18431"
         inkscape:connector-curvature="0" />
      <path
         transform="rotate(90)"
         style="opacity:1"
         d="m 718.36218,-151 h 5 v 10 h -5 z"
         id="rect18433"
         inkscape:connector-curvature="0" />
      <path
         sodipodi:nodetypes="cc"
         class="success"
         inkscape:original-d="m 147,713.36218 c 0,-2.50152 -2,-4 -5,-4"
         inkscape:path-effect="#path-effect7712"
         inkscape:connector-curvature="0"
         id="path7710"
         d="m 147.94488,713.36218 c 0,-3.13106 -2.55158,-4.94488 -5.94488,-4.94488 v 1.88976 c 2.6067,0 4.05512,1.18314 4.05512,3.05512 z"
         style="opacity:1;fill-rule:nonzero;stroke:none;stroke-width:1.88976;stroke-linecap:butt" />
    </g>
  </g>
</svg>
