<?xml version="1.0" encoding="UTF-8" standalone="no"?>
<svg
   xmlns:dc="http://purl.org/dc/elements/1.1/"
   xmlns:cc="http://creativecommons.org/ns#"
   xmlns:rdf="http://www.w3.org/1999/02/22-rdf-syntax-ns#"
   xmlns:svg="http://www.w3.org/2000/svg"
   xmlns="http://www.w3.org/2000/svg"
   xmlns:sodipodi="http://sodipodi.sourceforge.net/DTD/sodipodi-0.dtd"
   xmlns:inkscape="http://www.inkscape.org/namespaces/inkscape"
   inkscape:version="1.0beta2 (7cf281c, 2019-12-21)"
   sodipodi:docname="paint-gradient-linear-symbolic.svg"
   viewBox="0 0 16 16"
   height="16"
   width="16"
   id="svg1"
   version="1.1">
  <metadata
     id="metadata13829">
    <rdf:RDF>
      <cc:Work
         rdf:about="">
        <dc:format>image/svg+xml</dc:format>
        <dc:type
           rdf:resource="http://purl.org/dc/dcmitype/StillImage" />
      </cc:Work>
    </rdf:RDF>
  </metadata>
  <defs
     id="defs13827" />
  <style
     id="s0">.base { fill:#000000; }
.success { fill:#009909; }
.warning { fill:#FF1990; }
.error { fill:#00AAFF; }
.dark {  }
</style>
  <style
     id="s2">
@import '../../highlights.css';
</style>
  <sodipodi:namedview
     inkscape:current-layer="svg1"
     inkscape:window-maximized="1"
     inkscape:window-y="-6"
     inkscape:window-x="65"
     inkscape:window-height="890"
     inkscape:window-width="1296"
     inkscape:cy="8"
     inkscape:cx="8"
     inkscape:zoom="41.125"
     showgrid="true"
     id="namedview"
     guidetolerance="10"
     gridtolerance="10"
     objecttolerance="10">
    <inkscape:grid
       id="grid"
       type="xygrid" />
  </sodipodi:namedview>
  <rect
     class="error"
     y="0"
     x="0"
     height="16"
     width="16"
     id="rect15681"
     style="opacity:0.1;fill-rule:evenodd" />
  <rect
     style="opacity:0.2;fill-rule:evenodd"
     id="rect15683"
     width="14"
     height="16"
     x="0"
     y="0"
     class="error" />
  <rect
     class="error"
     y="0"
     x="0"
     height="16"
     width="12"
     id="rect15685"
     style="opacity:0.2;fill-rule:evenodd" />
  <rect
     style="opacity:0.2;fill-rule:evenodd"
     id="rect15687"
     width="10"
     height="16"
     x="0"
     y="0"
     class="error" />
  <rect
     class="error"
     y="0"
     x="0"
     height="16"
     width="8"
     id="rect15689"
     style="opacity:0.2;fill-rule:evenodd" />
  <rect
     style="opacity:0.2;fill-rule:evenodd"
     id="rect15691"
     width="6"
     height="16"
     x="0"
     y="0"
     class="error" />
  <rect
     class="error"
     y="0"
     x="0"
     height="16"
     width="4"
     id="rect15693"
     style="opacity:0.3;fill-rule:evenodd" />
  <rect
     style="opacity:1;fill-rule:evenodd"
     id="rect15695"
     width="2"
     height="16"
     x="0"
     y="0"
     class="error" />
</svg>
