<?xml version="1.0" encoding="UTF-8" standalone="no"?>
<svg
   xmlns:dc="http://purl.org/dc/elements/1.1/"
   xmlns:cc="http://creativecommons.org/ns#"
   xmlns:rdf="http://www.w3.org/1999/02/22-rdf-syntax-ns#"
   xmlns:svg="http://www.w3.org/2000/svg"
   xmlns="http://www.w3.org/2000/svg"
   xmlns:sodipodi="http://sodipodi.sourceforge.net/DTD/sodipodi-0.dtd"
   xmlns:inkscape="http://www.inkscape.org/namespaces/inkscape"
   inkscape:version="1.0beta2 (7cf281c, 2019-12-21)"
   sodipodi:docname="path-tweak-push-symbolic.svg"
   viewBox="0 0 16 16"
   height="16"
   width="16"
   id="svg1"
   version="1.1">
  <metadata
     id="metadata980">
    <rdf:RDF>
      <cc:Work
         rdf:about="">
        <dc:format>image/svg+xml</dc:format>
        <dc:type
           rdf:resource="http://purl.org/dc/dcmitype/StillImage" />
      </cc:Work>
    </rdf:RDF>
  </metadata>
  <defs
     id="defs978" />
  <style
     id="s0">
.base { fill:#000000; }
.success { fill:#009909; }
.warning { fill:#FF1990; }
.error { fill:#00AAFF; }
.dark { }
</style>
  <style
     id="s2">
@import '../../highlights.css';
</style>
  <sodipodi:namedview
     inkscape:current-layer="svg1"
     inkscape:window-maximized="1"
     inkscape:window-y="-6"
     inkscape:window-x="65"
     inkscape:window-height="890"
     inkscape:window-width="1296"
     inkscape:cy="8"
     inkscape:cx="8"
     inkscape:zoom="41.125"
     showgrid="true"
     id="namedview"
     guidetolerance="10"
     gridtolerance="10"
     objecttolerance="10">
    <inkscape:grid
       id="grid"
       type="xygrid" />
  </sodipodi:namedview>
  <g
     inkscape:label="00108"
     id="path-tweak-push"
     transform="translate(-255,-567.36218)">
    <path
       style="opacity:0;fill:none"
       d="m 255,567.36218 h 16 v 16 h -16 z"
       id="rect41487"
       inkscape:connector-curvature="0" />
    <path
       sodipodi:nodetypes="cssccsscc"
       style="opacity:1"
       d="m 255,574.3622 c 0,0 3.39208,0.76188 5.4375,-1.375 1.99998,-2.08942 3.99999,-2.08939 6,0 2.04539,2.13681 4.5625,1.375 4.5625,1.375 v 5 c 0,0 -2.54833,0.76183 -4.5938,-1.375 -2.00003,-2.08937 -4.00002,-2.08942 -6,0 -2.04542,2.13688 -5.4062,1.375 -5.4062,1.375 z"
       id="path41499"
       inkscape:connector-curvature="0" />
  </g>
</svg>
