<?xml version="1.0" encoding="UTF-8" standalone="no"?>
<svg
   xmlns:dc="http://purl.org/dc/elements/1.1/"
   xmlns:cc="http://creativecommons.org/ns#"
   xmlns:rdf="http://www.w3.org/1999/02/22-rdf-syntax-ns#"
   xmlns:svg="http://www.w3.org/2000/svg"
   xmlns="http://www.w3.org/2000/svg"
   xmlns:sodipodi="http://sodipodi.sourceforge.net/DTD/sodipodi-0.dtd"
   xmlns:inkscape="http://www.inkscape.org/namespaces/inkscape"
   inkscape:version="1.1-dev (1fceb22, 2019-12-30)"
   sodipodi:docname="preferences-system-symbolic.svg"
   viewBox="0 0 16 16"
   height="16"
   width="16"
   id="svg1"
   version="1.1">
  <metadata
     id="metadata3004">
    <rdf:RDF>
      <cc:Work
         rdf:about="">
        <dc:format>image/svg+xml</dc:format>
        <dc:type
           rdf:resource="http://purl.org/dc/dcmitype/StillImage" />
      </cc:Work>
    </rdf:RDF>
  </metadata>
  <defs
     id="defs3002" />
  <style
     id="s0">
.base { fill:#000000; }
.success { fill:#009909; }
.warning { fill:#FF1990; }
.error { fill:#00AAFF; }
.dark { }
</style>
  <style
     id="s2">
@import '../../highlights.css';
</style>
  <sodipodi:namedview
     inkscape:current-layer="svg1"
     inkscape:window-maximized="1"
     inkscape:window-y="-8"
     inkscape:window-x="54"
     inkscape:window-height="1177"
     inkscape:window-width="1858"
     inkscape:cy="8"
     inkscape:cx="8"
     inkscape:zoom="60.1875"
     showgrid="true"
     id="namedview"
     guidetolerance="10"
     gridtolerance="10"
     objecttolerance="10">
    <inkscape:grid
       id="grid"
       type="xygrid" />
  </sodipodi:namedview>
  <g
     inkscape:label="00379"
     id="preferences-system">
    <title
       id="title43146">preferences-system</title>
    <path
       style="opacity:0;fill:none"
       d="M 0,0 H 16 V 16 H 0 Z"
       id="gtk-preferences"
       inkscape:connector-curvature="0" />
    <path
       id="path43150"
       style="opacity:1"
       d="m 3.549515,0.0908209 c -0.399396,0 -0.786509,0.0919 -1.143474,0.21635 L 4.291229,2.192361 c 0.387409,0.3874 0.387409,1.00329 0,1.39071 l -0.710808,0.71081 c -0.387409,0.3874 -1.003305,0.3874 -1.390714,0 L 0.304519,2.408691 c -0.12446,0.35695 -0.216334,0.74407 -0.216334,1.14347 0,1.91164 1.549691,3.46132 3.46133,3.46132 0.399396,0 0.786511,-0.0919 1.143476,-0.21633 l 1.17438,1.17438 a 2.472626,2.472626 0 0 1 0.0618,0 L 7.999793,5.900921 6.794509,4.695631 c 0.124458,-0.35695 0.216332,-0.74407 0.216332,-1.14347 0,-1.91164 -1.549689,-3.4613401 -3.46133,-3.4613401 z M 10.10132,8.002441 8.030701,10.07305 a 2.472626,2.472626 0 0 1 0.03091,0.0927 l 1.143474,1.14347 c -0.124458,0.357 -0.216332,0.74412 -0.216332,1.14352 0,1.91164 1.549687,3.46134 3.461327,3.46134 0.43354,0 0.85375,-0.1017 1.23619,-0.24724 l -2.0088,-2.00881 c -0.38741,-0.38742 -0.38741,-1.0342 0,-1.42162 l 0.6799,-0.6799 c 0.1937,-0.19371 0.45801,-0.30906 0.71081,-0.30906 0.25279,0 0.5171,0.11535 0.71081,0.30906 l 1.947,1.94699 c 0.10486,-0.33054 0.18542,-0.6855 0.18542,-1.05076 0,-1.91164 -1.54969,-3.461319 -3.46133,-3.461319 -0.39939,0 -0.78651,0.0919 -1.14347,0.21633 l -1.20529,-1.2053 z"
       inkscape:connector-curvature="0" />
    <path
       id="path43152"
       style="opacity:1"
       d="m 13.8603,0 -1.5427,1.401689 c -0.45159,0.42201 -0.5293,1.15218 -0.26635,1.71144 l -5.889178,6.01323 c -0.01036,-2.5e-5 -0.02072,5.8e-5 -0.03108,2.5e-4 C 5.871357,8.996235 5.579305,8.944505 5.290686,8.977769 4.960503,9.024071 4.655346,9.17964 4.423915,9.419649 l -3.94684,4.008991 c -1.402175,1.41988 0.731968,3.52095 2.129781,2.09677 L 6.553695,11.51642 C 7.023352,11.06306 7.143746,10.35703 6.850873,9.773649 L 12.7403,3.791489 c 0.55791,0.2491 1.27345,0.1474 1.70708,-0.29305 l 1.41742,-1.56504 z"
       inkscape:connector-curvature="0" />
  </g>
</svg>
