<?xml version="1.0" encoding="UTF-8" standalone="no"?>
<svg
   xmlns:dc="http://purl.org/dc/elements/1.1/"
   xmlns:cc="http://creativecommons.org/ns#"
   xmlns:rdf="http://www.w3.org/1999/02/22-rdf-syntax-ns#"
   xmlns:svg="http://www.w3.org/2000/svg"
   xmlns="http://www.w3.org/2000/svg"
   xmlns:sodipodi="http://sodipodi.sourceforge.net/DTD/sodipodi-0.dtd"
   xmlns:inkscape="http://www.inkscape.org/namespaces/inkscape"
   inkscape:version="1.1-dev (1fceb22, 2019-12-30)"
   sodipodi:docname="stroke-cap-square-symbolic.svg"
   viewBox="0 0 16 16"
   height="16"
   width="16"
   id="svg1"
   version="1.1">
  <metadata
     id="metadata14916">
    <rdf:RDF>
      <cc:Work
         rdf:about="">
        <dc:format>image/svg+xml</dc:format>
        <dc:type
           rdf:resource="http://purl.org/dc/dcmitype/StillImage" />
      </cc:Work>
    </rdf:RDF>
  </metadata>
  <defs
     id="defs14914" />
  <style
     id="s0">
.base { fill:#000000; }
.success { fill:#009909; }
.warning { fill:#FF1990; }
.error { fill:#00AAFF; }
.dark { }
</style>
  <style
     id="s2">
@import '../../highlights.css';
</style>
  <sodipodi:namedview
     inkscape:current-layer="svg1"
     inkscape:window-maximized="1"
     inkscape:window-y="-8"
     inkscape:window-x="54"
     inkscape:window-height="1177"
     inkscape:window-width="1858"
     inkscape:cy="8"
     inkscape:cx="8"
     inkscape:zoom="60.1875"
     showgrid="true"
     id="namedview"
     guidetolerance="10"
     gridtolerance="10"
     objecttolerance="10">
    <inkscape:grid
       id="grid"
       type="xygrid" />
  </sodipodi:namedview>
  <g
     id="stroke-cap-square"
     inkscape:label="00317"
     transform="matrix(0.666667,0,0,0.666666,-789.33333,-664.2409)">
    <path
       style="opacity:0;fill:none"
       d="m 1184,996.36218 h 24 v 24.00002 h -24 z"
       id="rect24666"
       inkscape:connector-curvature="0" />
    <path
       style="opacity:1"
       d="m 1195,1004.362 h 2 v 2 h -2 z"
       id="rect24668"
       inkscape:connector-curvature="0" />
    <path
       style="opacity:1"
       d="m 1195,1007.362 h 2 v 2 h -2 z"
       id="rect24670"
       inkscape:connector-curvature="0" />
    <path
       style="opacity:1"
       d="m 1195,1010.362 h 2 v 2 h -2 z"
       id="rect24672"
       inkscape:connector-curvature="0" />
    <path
       style="opacity:1"
       d="m 1195,1013.362 h 2 v 2 h -2 z"
       id="rect24674"
       inkscape:connector-curvature="0" />
    <path
       style="opacity:1"
       d="m 1195,1016.362 h 2 v 2 h -2 z"
       id="rect24676"
       inkscape:connector-curvature="0" />
    <path
       inkscape:connector-curvature="0"
       id="rect24678"
       d="m 1188,999.3622 v 0.9998 3 15 h 5 v -15 h 6 v 15 h 5 v -18 -0.9998 z"
       style="opacity:1" />
  </g>
</svg>
