<?xml version="1.0" encoding="UTF-8" standalone="no"?>
<svg
   xmlns:dc="http://purl.org/dc/elements/1.1/"
   xmlns:cc="http://creativecommons.org/ns#"
   xmlns:rdf="http://www.w3.org/1999/02/22-rdf-syntax-ns#"
   xmlns:svg="http://www.w3.org/2000/svg"
   xmlns="http://www.w3.org/2000/svg"
   xmlns:sodipodi="http://sodipodi.sourceforge.net/DTD/sodipodi-0.dtd"
   xmlns:inkscape="http://www.inkscape.org/namespaces/inkscape"
   version="1.1"
   id="svg1"
   width="16"
   height="16"
   viewBox="0 0 16 16"
   sodipodi:docname="text_horz_kern-symbolic.svg"
   inkscape:version="1.1-dev (6039630, 2019-12-20)">
  <metadata
     id="metadata8825">
    <rdf:RDF>
      <cc:Work
         rdf:about="">
        <dc:format>image/svg+xml</dc:format>
        <dc:type
           rdf:resource="http://purl.org/dc/dcmitype/StillImage" />
      </cc:Work>
    </rdf:RDF>
  </metadata>
  <defs
     id="defs8823" />
  <style
     id="s0">.base { fill:#000000; }
.success { fill:#009909; }
.warning { fill:#FF1990; }
.error { fill:#00AAFF; }
.dark {  }
</style>
  <style
     id="s2">
@import '../../highlights.css';
</style>
  <sodipodi:namedview
     objecttolerance="10"
     gridtolerance="10"
     guidetolerance="10"
     id="namedview"
     showgrid="true"
     inkscape:zoom="41.125"
     inkscape:cx="8"
     inkscape:cy="8"
     inkscape:window-width="1296"
     inkscape:window-height="890"
     inkscape:window-x="65"
     inkscape:window-y="-6"
     inkscape:window-maximized="1"
     inkscape:current-layer="text_horz_kern">
    <inkscape:grid
       type="xygrid"
       id="grid" />
  </sodipodi:namedview>
  <g
     transform="translate(-469,-836.36218)"
     id="text_horz_kern"
     inkscape:label="00182">
    <path
       inkscape:connector-curvature="0"
       id="rect21483"
       d="m 469,836.36218 h 16 v 16 h -16 z"
       style="opacity:0;fill:none" />
    <path
       style="opacity:0.4"
       d="M 471.5031,840.3681 469,847.3577 h 1.5019 c 0.744,-1.997 0,10e-4 0.7423,-1.9955 l 2.5586,0.018 0.7041,1.9775 h 1.5018 l -2.5031,-6.9896 z m 1.0013,1.4978 1.0123,2.4963 h -2.0025 z"
       id="path21485"
       inkscape:connector-curvature="0" />
    <path
       inkscape:connector-curvature="0"
       id="path21487"
       d="M 479.5031,840.3681 477,847.3577 h 1.5019 c 0.744,-1.997 0,10e-4 0.7423,-1.9955 l 2.5586,0.018 0.7041,1.9775 h 1.5018 l -2.5031,-6.9896 z m 1.0013,1.4978 1.0123,2.4963 h -2.0025 z"
       style="opacity:1" />
    <path
       inkscape:connector-curvature="0"
       id="rect21489"
       d="m 474,837.36218 h 5 v 2 h -5 z"
       style="opacity:1;stroke-width:0.953461"
       class="success" />
    <path
       inkscape:connector-curvature="0"
       id="rect21494"
       d="m 477,848.36218 h 7 v 1 h -7 z"
       style="opacity:1;stroke-width:0.68313" />
    <path
       style="opacity:0.4;stroke-width:0.730297"
       d="m 469,848.36218 h 8 v 1 h -8 z"
       id="path11794"
       inkscape:connector-curvature="0" />
  </g>
</svg>
