<?xml version="1.0" encoding="UTF-8" standalone="no"?>
<svg
   xmlns:dc="http://purl.org/dc/elements/1.1/"
   xmlns:cc="http://creativecommons.org/ns#"
   xmlns:rdf="http://www.w3.org/1999/02/22-rdf-syntax-ns#"
   xmlns:svg="http://www.w3.org/2000/svg"
   xmlns="http://www.w3.org/2000/svg"
   xmlns:sodipodi="http://sodipodi.sourceforge.net/DTD/sodipodi-0.dtd"
   xmlns:inkscape="http://www.inkscape.org/namespaces/inkscape"
   inkscape:version="1.1-dev (6039630, 2019-12-20)"
   sodipodi:docname="transform-skew-vertical-symbolic.svg"
   viewBox="0 0 16 16"
   height="16"
   width="16"
   id="svg1"
   version="1.1">
  <metadata
     id="metadata2402">
    <rdf:RDF>
      <cc:Work
         rdf:about="">
        <dc:format>image/svg+xml</dc:format>
        <dc:type
           rdf:resource="http://purl.org/dc/dcmitype/StillImage" />
      </cc:Work>
    </rdf:RDF>
  </metadata>
  <defs
     id="defs2400">
    <inkscape:path-effect
       hide_knots="false"
       only_selected="false"
       apply_with_radius="true"
       apply_no_radius="true"
       use_knot_distance="true"
       flexible="false"
       chamfer_steps="1"
       radius="0"
       mode="F"
       method="auto"
       unit="px"
       satellites_param="F,0,0,1,0,1.0001634,0,1 @ F,0,1,1,0,1.0001634,0,1 @ F,0,1,1,0,1.0001634,0,1 @ F,0,1,1,0,1.0001634,0,1"
       lpeversion="1"
       is_visible="true"
       id="path-effect2965"
       effect="fillet_chamfer" />
  </defs>
  <style
     id="s0">.base { fill:#000000; }
.success { fill:#009909; }
.warning { fill:#FF1990; }
.error { fill:#00AAFF; }
.dark {  }
</style>
  <style
     id="s2">
@import '../../highlights.css';
</style>
  <sodipodi:namedview
     inkscape:current-layer="transform-skew-vertical"
     inkscape:window-maximized="1"
     inkscape:window-y="-6"
     inkscape:window-x="65"
     inkscape:window-height="890"
     inkscape:window-width="1296"
     inkscape:cy="8.1556846"
     inkscape:cx="8.2835126"
     inkscape:zoom="29.079766"
     showgrid="true"
     id="namedview"
     guidetolerance="10"
     gridtolerance="10"
     objecttolerance="10">
    <inkscape:grid
       id="grid"
       type="xygrid" />
  </sodipodi:namedview>
  <g
     inkscape:label="00243"
     id="transform-skew-vertical"
     transform="matrix(1,0,0,-0.999999,-529,728.36165)">
    <path
       style="opacity:0;fill:none"
       d="m 529,712.36218 h 16 v 16 h -16 z"
       id="rect19383"
       inkscape:connector-curvature="0" />
    <path
       class="success"
       inkscape:connector-curvature="0"
       style="opacity:1"
       d="m 539,722.3622 h 2 v 6 h 2 v -6 h 2 l -3,-4 z"
       id="path19386" />
    <path
       class="base"
       style="opacity:0.3"
       d="m 529,721.3622 v 7 h 7 v -7 z"
       id="path19388"
       inkscape:connector-curvature="0" />
    <path
       inkscape:original-d="m 539,712.3622 -10,9 v 7 l 10,-8.2188 z"
       inkscape:path-effect="#path-effect2965"
       class="base"
       style="opacity:1"
       d="m 538.25658,713.03127 -8.51316,7.66186 A 2.2457293,2.2457293 114.00639 0 0 529,722.36236 v 4.99968 a 0.47260315,0.47260315 25.291949 0 0 0.77268,0.36511 l 8.45464,-6.9487 A 2.1166317,2.1166317 115.29195 0 0 539,719.14324 v -5.78088 a 0.44543518,0.44543518 24.006394 0 0 -0.74342,-0.33109 z"
       id="path19390"
       inkscape:connector-curvature="0" />
  </g>
</svg>
